{
    "archives": {
        "browse:media:earth:2020": {
            "DEFAULT": "system_health_desktop_27ca4caf21.wprgo"
        },
        "browse:media:flickr_infinite_scroll": {
            "DEFAULT": "system_health_desktop_057.wprgo"
        },
        "browse:media:googleplaystore:2018": {
            "DEFAULT": "system_health_desktop_ea41d8bc49.wprgo"
        },
        "browse:media:imgur": {
            "DEFAULT": "system_health_desktop_025.wprgo"
        },
        "browse:media:pinterest": {
            "DEFAULT": "system_health_desktop_035.wprgo"
        },
        "browse:media:pinterest:2018": {
            "DEFAULT": "system_health_desktop_939ec7010c.wprgo"
        },
        "browse:media:tumblr": {
            "DEFAULT": "system_health_desktop_036.wprgo"
        },
        "browse:media:tumblr:2018": {
            "DEFAULT": "system_health_desktop_55cb9dd713.wprgo"
        },
        "browse:media:youtube": {
            "DEFAULT": "system_health_desktop_026.wprgo",
            "linux": "system_health_desktop_026.wprgo",
            "mac": "system_health_desktop_040.wprgo",
            "win": "system_health_desktop_047.wprgo"
        },
        "browse:media:youtube:2019": {
            "DEFAULT": "system_health_desktop_d48f7fff0a.wprgo",
            "linux": "system_health_desktop_d48f7fff0a.wprgo"
        },
        "browse:media:youtubetv:2019": {
            "DEFAULT": "system_health_desktop_e53598d1f4.wprgo"
        },
        "browse:media:youtubetv_watch:2020": {
            "DEFAULT": "system_health_desktop_9fdd303aad.wprgo"
        },
        "browse:news:cnn": {
            "DEFAULT": "system_health_desktop_013.wprgo"
        },
        "browse:news:cnn:2020": {
            "DEFAULT": "system_health_desktop_4211dae280.wprgo"
        },
        "browse:news:flipboard": {
            "DEFAULT": "system_health_desktop_021.wprgo"
        },
        "browse:news:flipboard:2018": {
            "DEFAULT": "system_health_desktop_4c82ac641b.wprgo"
        },
        "browse:news:hackernews": {
            "DEFAULT": "system_health_desktop_014.wprgo"
        },
        "browse:news:hackernews:2018": {
            "DEFAULT": "system_health_desktop_45995e1b9c.wprgo"
        },
        "browse:news:nytimes": {
            "DEFAULT": "system_health_desktop_015.wprgo"
        },
        "browse:news:nytimes:2020": {
            "DEFAULT": "system_health_desktop_5a63eee637.wprgo"
        },
        "browse:news:reddit": {
            "DEFAULT": "system_health_desktop_016.wprgo"
        },
        "browse:news:reddit:2018": {
            "DEFAULT": "system_health_desktop_907087980d.wprgo"
        },
        "browse:search:google": {
            "DEFAULT": "system_health_desktop_037.wprgo"
        },
        "browse:search:google:2018": {
            "DEFAULT": "system_health_desktop_066.wprgo"
        },
        "browse:search:google_india": {
            "DEFAULT": "system_health_desktop_039.wprgo"
        },
        "browse:search:google_india:2018": {
            "DEFAULT": "system_health_desktop_b576da862c.wprgo"
        },
        "browse:social:facebook_infinite_scroll": {
            "DEFAULT": "system_health_desktop_055.wprgo"
        },
        "browse:social:facebook_infinite_scroll:2018": {
            "DEFAULT": "system_health_desktop_064.wprgo"
        },
        "browse:social:tumblr_infinite_scroll": {
            "DEFAULT": "system_health_desktop_056.wprgo"
        },
        "browse:social:tumblr_infinite_scroll:2018": {
            "DEFAULT": "system_health_desktop_2015ed2b54.wprgo"
        },
        "browse:social:twitter": {
            "DEFAULT": "system_health_desktop_053.wprgo"
        },
        "browse:social:twitter:2018": {
            "DEFAULT": "system_health_desktop_6bd6f0c70a.wprgo"
        },
        "browse:social:twitter_infinite_scroll": {
            "DEFAULT": "system_health_desktop_054.wprgo"
        },
        "browse:social:twitter_infinite_scroll:2018": {
            "DEFAULT": "system_health_desktop_f6af33019a.wprgo"
        },
        "browse:tech:discourse_infinite_scroll": {
            "DEFAULT": "system_health_desktop_058.wprgo"
        },
        "browse:tech:discourse_infinite_scroll:2018": {
            "DEFAULT": "system_health_desktop_065.wprgo"
        },
        "browse:tools:docs": {
            "DEFAULT": "system_health_desktop_69209f77b1.wprgo"
        },
        "browse:tools:docs-scrolling": {
            "DEFAULT": "system_health_desktop_4c81a0acbb.wprgo"
        },
        "browse:tools:docs_scrolling": {
            "DEFAULT": "system_health_desktop_b34b0b8219.wprgo"
        },
        "browse:tools:earth": {
            "DEFAULT": "system_health_desktop_050.wprgo"
        },
        "browse:tools:earth:2020": {
            "DEFAULT": "system_health_desktop_df060e3191.wprgo"
        },
        "browse:tools:gmail-compose:2020": {
            "DEFAULT": "system_health_desktop_1d2b5dbaab.wprgo"
        },
        "browse:tools:gmail-labelclick:2020": {
            "DEFAULT": "system_health_desktop_60458a481a.wprgo"
        },
        "browse:tools:gmail-openconversation:2020": {
            "DEFAULT": "system_health_desktop_beed31115c.wprgo"
        },
        "browse:tools:gmail-search:2020": {
            "DEFAULT": "system_health_desktop_b704f9990b.wprgo"
        },
        "browse:tools:maps": {
            "DEFAULT": "system_health_desktop_052.wprgo"
        },
        "browse:tools:maps:2019": {
            "DEFAULT": "system_health_desktop_feb332ef0c.wprgo"
        },
        "browse:tools:sheets:2019": {
            "DEFAULT": "system_health_desktop_d7b02362d8.wprgo"
        },
        "browse_accessibility:media:youtube": {
            "DEFAULT": "system_health_desktop_062.wprgo"
        },
        "browse_accessibility:tech:codesearch": {
            "DEFAULT": "system_health_desktop_059.wprgo"
        },
        "browse_accessibility:tech:codesearch:2018": {
            "DEFAULT": "system_health_desktop_063.wprgo"
        },
        "load:games:alphabetty": {
            "DEFAULT": "system_health_desktop_005.wprgo"
        },
        "load:games:alphabetty:2018": {
            "DEFAULT": "system_health_desktop_8360dd959c.wprgo"
        },
        "load:games:bubbles": {
            "DEFAULT": "system_health_desktop_005.wprgo"
        },
        "load:games:bubbles:2020": {
            "DEFAULT": "system_health_desktop_215b0b9a77.wprgo"
        },
        "load:games:lazors": {
            "DEFAULT": "system_health_desktop_005.wprgo"
        },
        "load:games:miniclip": {
            "DEFAULT": "system_health_desktop_005.wprgo"
        },
        "load:games:miniclip:2018": {
            "DEFAULT": "system_health_desktop_da7af79086.wprgo"
        },
        "load:games:spychase": {
            "DEFAULT": "system_health_desktop_005.wprgo"
        },
        "load:games:spychase:2018": {
            "DEFAULT": "system_health_desktop_84749d207a.wprgo"
        },
        "load:media:9gag": {
            "DEFAULT": "system_health_desktop_003.wprgo"
        },
        "load:media:dailymotion": {
            "DEFAULT": "system_health_desktop_003.wprgo"
        },
        "load:media:dailymotion:2019": {
            "DEFAULT": "system_health_desktop_fb04043fc0.wprgo"
        },
        "load:media:facebook_photos:2018": {
            "DEFAULT": "system_health_desktop_eba368f102.wprgo"
        },
        "load:media:flickr:2018": {
            "DEFAULT": "system_health_desktop_ae117f4f81.wprgo"
        },
        "load:media:google_images": {
            "DEFAULT": "system_health_desktop_003.wprgo"
        },
        "load:media:google_images:2018": {
            "DEFAULT": "system_health_desktop_2fefa84cbf.wprgo"
        },
        "load:media:imgur": {
            "DEFAULT": "system_health_desktop_025.wprgo"
        },
        "load:media:imgur:2018": {
            "DEFAULT": "system_health_desktop_de90b5422c.wprgo"
        },
        "load:media:soundcloud": {
            "DEFAULT": "system_health_desktop_003.wprgo"
        },
        "load:media:soundcloud:2018": {
            "DEFAULT": "system_health_desktop_c57cd175f7.wprgo"
        },
        "load:media:youtube": {
            "DEFAULT": "system_health_desktop_003.wprgo",
            "linux": "system_health_desktop_003.wprgo",
            "mac": "system_health_desktop_040.wprgo",
            "win": "system_health_desktop_047.wprgo"
        },
        "load:media:youtube:2018": {
            "DEFAULT": "system_health_desktop_cef8441ac0.wprgo"
        },
        "load:media:youtubelivingroom:2020": {
            "DEFAULT": "system_health_desktop_ffb5f36c56.wprgo"
        },
        "load:news:bbc": {
            "DEFAULT": "system_health_desktop_002.wprgo"
        },
        "load:news:bbc:2018": {
            "DEFAULT": "system_health_desktop_72c5149b77.wprgo"
        },
        "load:news:cnn": {
            "DEFAULT": "system_health_desktop_006.wprgo"
        },
        "load:news:cnn:2018": {
            "DEFAULT": "system_health_desktop_3c603ac582.wprgo"
        },
        "load:news:flipboard": {
            "DEFAULT": "system_health_desktop_020.wprgo"
        },
        "load:news:hackernews": {
            "DEFAULT": "system_health_desktop_008.wprgo"
        },
        "load:news:hackernews:2018": {
            "DEFAULT": "system_health_desktop_fd099ca6a6.wprgo"
        },
        "load:news:nytimes": {
            "DEFAULT": "system_health_desktop_009.wprgo"
        },
        "load:news:nytimes:2018": {
            "DEFAULT": "system_health_desktop_6d7605317e.wprgo"
        },
        "load:news:qq": {
            "DEFAULT": "system_health_desktop_010.wprgo"
        },
        "load:news:qq:2018": {
            "DEFAULT": "system_health_desktop_413e958e1c.wprgo"
        },
        "load:news:reddit": {
            "DEFAULT": "system_health_desktop_011.wprgo"
        },
        "load:news:reddit:2018": {
            "DEFAULT": "system_health_desktop_b3e531107c.wprgo"
        },
        "load:news:wikipedia": {
            "DEFAULT": "system_health_desktop_002.wprgo"
        },
        "load:news:wikipedia:2018": {
            "DEFAULT": "system_health_desktop_2c06c24ac6.wprgo"
        },
        "load:search:amazon": {
            "DEFAULT": "system_health_desktop_000.wprgo"
        },
        "load:search:amazon:2018": {
            "DEFAULT": "system_health_desktop_af501c33ad.wprgo"
        },
        "load:search:baidu": {
            "DEFAULT": "system_health_desktop_000.wprgo"
        },
        "load:search:baidu:2018": {
            "DEFAULT": "system_health_desktop_beec2d8329.wprgo"
        },
        "load:search:ebay": {
            "DEFAULT": "system_health_desktop_000.wprgo"
        },
        "load:search:ebay:2018": {
            "DEFAULT": "system_health_desktop_0e255e1cf7.wprgo"
        },
        "load:search:flipkart": {
            "DEFAULT": "system_health_desktop_000.wprgo"
        },
        "load:search:flipkart:2018": {
            "DEFAULT": "system_health_desktop_82350a34b0.wprgo"
        },
        "load:search:google": {
            "DEFAULT": "system_health_desktop_022.wprgo"
        },
        "load:search:google:2018": {
            "DEFAULT": "system_health_desktop_b11350f30f.wprgo"
        },
        "load:search:taobao": {
            "DEFAULT": "system_health_desktop_000.wprgo"
        },
        "load:search:taobao:2018": {
            "DEFAULT": "system_health_desktop_d312e21b98.wprgo"
        },
        "load:search:yahoo": {
            "DEFAULT": "system_health_desktop_000.wprgo"
        },
        "load:search:yahoo:2018": {
            "DEFAULT": "system_health_desktop_d661408019.wprgo"
        },
        "load:search:yandex": {
            "DEFAULT": "system_health_desktop_000.wprgo"
        },
        "load:search:yandex:2018": {
            "DEFAULT": "system_health_desktop_84d11cb3d6.wprgo"
        },
        "load:social:facebook": {
            "DEFAULT": "system_health_desktop_007.wprgo"
        },
        "load:social:instagram": {
            "DEFAULT": "system_health_desktop_001.wprgo"
        },
        "load:social:instagram:2018": {
            "DEFAULT": "system_health_desktop_341437d15c.wprgo"
        },
        "load:social:pinterest": {
            "DEFAULT": "system_health_desktop_001.wprgo"
        },
        "load:social:pinterest:2019": {
            "DEFAULT": "system_health_desktop_f399a24dd4.wprgo"
        },
        "load:social:tumblr": {
            "DEFAULT": "system_health_desktop_001.wprgo"
        },
        "load:social:twitter": {
            "DEFAULT": "system_health_desktop_018.wprgo"
        },
        "load:social:vk": {
            "DEFAULT": "system_health_desktop_001.wprgo"
        },
        "load:social:vk:2018": {
            "DEFAULT": "system_health_desktop_a099b947c2.wprgo"
        },
        "load:tools:chat:2020": {
            "DEFAULT": "system_health_desktop_62b68fb318.wprgo"
        },
        "load:tools:docs": {
            "DEFAULT": "system_health_desktop_004.wprgo"
        },
        "load:tools:docs:2019": {
            "DEFAULT": "system_health_desktop_5f62c3d808.wprgo"
        },
        "load:tools:drive": {
            "DEFAULT": "system_health_desktop_004.wprgo"
        },
        "load:tools:drive:2019": {
            "DEFAULT": "system_health_desktop_3f8ef10603.wprgo"
        },
        "load:tools:dropbox": {
            "DEFAULT": "system_health_desktop_004.wprgo"
        },
        "load:tools:gmail": {
            "DEFAULT": "system_health_desktop_004.wprgo"
        },
        "load:tools:gmail:2019": {
            "DEFAULT": "system_health_desktop_0e466e2324.wprgo"
        },
        "load:tools:maps": {
            "DEFAULT": "system_health_desktop_004.wprgo"
        },
        "load:tools:stackoverflow": {
            "DEFAULT": "system_health_desktop_004.wprgo"
        },
        "load:tools:stackoverflow:2018": {
            "DEFAULT": "system_health_desktop_acb5e9444f.wprgo"
        },
        "load:tools:weather": {
            "DEFAULT": "system_health_desktop_004.wprgo"
        },
        "load:tools:weather:2019": {
            "DEFAULT": "system_health_desktop_70d821feeb.wprgo"
        },
        "load_accessibility:media:wikipedia": {
            "DEFAULT": "system_health_desktop_059.wprgo"
        },
        "load_accessibility:media:wikipedia:2018": {
            "DEFAULT": "system_health_desktop_6903b36338.wprgo"
        },
        "load_accessibility:shopping:amazon": {
            "DEFAULT": "system_health_desktop_059.wprgo"
        },
        "load_accessibility:shopping:amazon:2018": {
            "DEFAULT": "system_health_desktop_c69a8c0e2f.wprgo"
        },
        "long_running:tools:gmail-background": {
            "DEFAULT": "system_health_desktop_028.wprgo"
        },
        "long_running:tools:gmail-foreground": {
            "DEFAULT": "system_health_desktop_028.wprgo"
        },
        "multitab:misc:typical24": {
            "DEFAULT": "system_health_desktop_049.wprgo"
        },
        "multitab:misc:typical24:2018": {
            "DEFAULT": "system_health_desktop_37bd086ce0.wprgo"
        },
        "play:media:google_play_music": {
            "DEFAULT": "system_health_desktop_030.wprgo"
        },
        "play:media:pandora": {
            "DEFAULT": "system_health_desktop_032.wprgo"
        },
        "play:media:soundcloud": {
            "DEFAULT": "system_health_desktop_030.wprgo"
        },
        "play:media:soundcloud:2018": {
            "DEFAULT": "system_health_desktop_57d9c71c88.wprgo"
        },
        "search:portal:google": {
            "DEFAULT": "system_health_desktop_022.wprgo"
        }
    },
    "description": "Describes the Web Page Replay archives for a story set. Don't edit by hand! Use record_wpr for updating.",
    "platform_specific": true
}